<svg xmlns="http://www.w3.org/2000/svg" xmlns:xlink="http://www.w3.org/1999/xlink" width="24" height="24" viewBox="0 0 24 24">
    <defs>
        <path id="a" d="M12 6a6.007 6.007 0 0 0-6 6 6 6 0 1 0 6-6zm0-1.5a7.5 7.5 0 1 1 0 15 7.5 7.5 0 0 1 0-15zm-.688 10.6l-3.075-3.073 1.06-1.06 1.985 1.982 3.425-3.619 1.09 1.031-4.486 4.74z"/>
    </defs>
    <g fill="none" fill-rule="evenodd">
        <mask id="b" fill="#fff">
            <use xlink:href="#a"/>
        </mask>
        <g fill="#2760a9" fill-rule="nonzero" mask="url(#b)">
            <path d="M0 0h24v24H0z"/>
        </g>
    </g>
</svg>
